<?xml version="1.0" encoding="utf-8"?>
<!-- Generator: Adobe Illustrator 23.0.0, SVG Export Plug-In . SVG Version: 6.00 Build 0)  -->
<svg version="1.1" xmlns="http://www.w3.org/2000/svg" xmlns:xlink="http://www.w3.org/1999/xlink" x="0px" y="0px"
	 viewBox="0 0 1920 1080" style="enable-background:new 0 0 1920 1080;" xml:space="preserve">
<style type="text/css">
	.st0{fill:none;}
	.st1{opacity:0.3;fill:none;stroke:#9F9C94;stroke-width:0.5;stroke-miterlimit:10;}
	.st2{opacity:0.3;fill:#635F5D;stroke:#9F9C94;stroke-width:0.5;stroke-miterlimit:10;}
	.st3{opacity:0.3;fill:#444040;}
	.st4{opacity:0.3;fill:#E3E3DC;}
	.st5{opacity:0.9;}
	.st6{opacity:0.3;fill:#9D9991;stroke:#E2E2E2;stroke-miterlimit:10;}
	.st7{fill:#0A0B18;}
	.st8{opacity:0.4;fill:url(#HospitalPanic);}
</style>
<pattern  width="429.48" height="562.64" patternUnits="userSpaceOnUse" id="HospitalPanic" viewBox="26 -567.75 429.48 562.64" style="overflow:visible;">
	<g>
		<rect x="26" y="-567.75" class="st0" width="429.48" height="562.64"/>
		<g>
			<path class="st1" d="M373.05-30.18c-2.52,3.1-7.34,3.34-10.78,0.55l0,0c-3.43-2.8-4.18-7.57-1.66-10.66l16.49-20.27
				c2.52-3.1,7.34-3.34,10.78-0.55l0,0c3.43,2.79,4.18,7.57,1.66,10.66L373.05-30.18z"/>
			<path class="st2" d="M389.93-49.28l-15.57,19.06c-3.19,3.91-8.94,4.49-12.85,1.29c-3.91-3.19-4.49-8.95-1.29-12.85l15.57-19.05
				c3.19-3.91,8.95-4.48,12.85-1.3C392.54-58.94,393.12-53.19,389.93-49.28z M374.94-36.04c-0.12-0.11-0.36,0-0.36,0l-0.01-0.02
				c-4.42,2.96-9.19,2.69-10.99,2.45l-0.01,0.01c0,0-0.51,0.09-0.2,0.47c0.16,0.16,0.33,0.32,0.51,0.46c2.9,2.37,7.11,2,9.42-0.82
				l1.7-2.08C375.13-35.71,375.05-35.93,374.94-36.04z M387.06-59.92c-2.98-2.43-7.36-1.99-9.8,0.99l-6.31,7.72l10.95,8.63
				l3.33-4.08c0.05-0.07,0.1-0.13,0.15-0.2l2.67-3.27C390.48-53.1,390.04-57.49,387.06-59.92z"/>
			<path class="st2" d="M470.63-1.58c0.06,0.09,0.26,0.96,0.26,0.96s-0.7-0.54-0.76-0.63l-7.65-11.74c-0.42,0.02-1.16,0.05-1.26-0.1
				l-2.86-4.41l-0.26,0.17c-0.09,0.06-0.21,0.03-0.27-0.06l-0.07-0.11c-0.06-0.09-0.03-0.21,0.06-0.27l0.26-0.17l-0.15-0.23
				l-2.96-0.63l0.05-0.03c-0.05,0.02-0.11,0.02-0.15-0.01l-0.01,0.01l-0.01-0.02c-0.01-0.01-0.02-0.02-0.03-0.04
				c-0.01-0.01-0.02-0.03-0.02-0.05l-1.37-2.12l1.2-0.76l-0.45-0.71l-1.2,0.77l-2.17-3.34l1.23-0.78l-0.45-0.7l-1.23,0.79
				l-2.43-3.74l1.25-0.8l-0.45-0.7l-1.26,0.8l-2.17-3.34l1.28-0.82l-0.45-0.7l-1.28,0.82l-2.35-3.63l1.3-0.83l-0.45-0.7l-1.31,0.84
				l-0.95-1.46l-2.13,1.39c-0.16,0.1-0.37,0.06-0.48-0.1l-0.13-0.2c-0.11-0.16-0.06-0.38,0.1-0.48l2.52-1.64l-4.3-6.57l-0.79,0.51
				c-0.22,0.14-0.51,0.08-0.65-0.14c-0.14-0.22-0.08-0.51,0.14-0.65l6.69-4.34c0.22-0.14,0.51-0.08,0.65,0.14
				c0.14,0.22,0.08,0.51-0.14,0.65l-0.79,0.51l4.3,6.57l2.51-1.63c0.16-0.1,0.37-0.06,0.48,0.1l0.13,0.2
				c0.1,0.16,0.06,0.38-0.1,0.48l-2.13,1.39l0.98,1.51l11.23,17.29l1.51,2.33c0.01,0.01,0.02,0.02,0.03,0.04
				c0.01,0.01,0.01,0.03,0.02,0.05l0.01,0.02l-0.01,0c0,0.05-0.01,0.11-0.05,0.14l0.05-0.03l-0.63,2.95l0.15,0.24l0.26-0.17
				c0.09-0.06,0.21-0.03,0.27,0.06l0.07,0.11c0.06,0.09,0.03,0.21-0.06,0.27l-0.26,0.17l2.87,4.41c0.09,0.14-0.23,0.75-0.45,1.15
				L470.63-1.58"/>
		</g>
		<g>
			<path class="st1" d="M229.88-30.18c-2.52,3.1-7.34,3.34-10.78,0.55l0,0c-3.43-2.8-4.18-7.57-1.66-10.66l16.49-20.27
				c2.52-3.1,7.34-3.34,10.78-0.55l0,0c3.43,2.79,4.18,7.57,1.66,10.66L229.88-30.18z"/>
			<path class="st2" d="M246.77-49.28L231.2-30.23c-3.19,3.91-8.94,4.49-12.85,1.29c-3.91-3.19-4.49-8.95-1.29-12.85l15.57-19.05
				c3.19-3.91,8.95-4.48,12.85-1.3C249.38-58.94,249.96-53.19,246.77-49.28z M231.77-36.04c-0.12-0.11-0.36,0-0.36,0l-0.01-0.02
				c-4.42,2.96-9.19,2.69-10.99,2.45l-0.01,0.01c0,0-0.51,0.09-0.2,0.47c0.16,0.16,0.33,0.32,0.51,0.46c2.9,2.37,7.11,2,9.42-0.82
				l1.7-2.08C231.97-35.71,231.89-35.93,231.77-36.04z M243.9-59.92c-2.98-2.43-7.36-1.99-9.8,0.99l-6.31,7.72l10.95,8.63l3.33-4.08
				c0.05-0.07,0.1-0.13,0.15-0.2l2.67-3.27C247.32-53.1,246.88-57.49,243.9-59.92z"/>
			<path class="st2" d="M327.47-1.58c0.06,0.09,0.26,0.96,0.26,0.96s-0.7-0.54-0.76-0.63l-7.65-11.74c-0.42,0.02-1.16,0.05-1.26-0.1
				l-2.86-4.41l-0.26,0.17c-0.09,0.06-0.21,0.03-0.27-0.06l-0.07-0.11c-0.06-0.09-0.03-0.21,0.06-0.27l0.26-0.17l-0.15-0.23
				l-2.96-0.63l0.05-0.03c-0.05,0.02-0.11,0.02-0.15-0.01l-0.01,0.01l-0.01-0.02c-0.01-0.01-0.02-0.02-0.03-0.04
				c-0.01-0.01-0.02-0.03-0.02-0.05l-1.37-2.12l1.2-0.76L311-22.55l-1.2,0.77l-2.17-3.34l1.23-0.78l-0.45-0.7l-1.23,0.79l-2.43-3.74
				l1.25-0.8l-0.45-0.7l-1.26,0.8l-2.17-3.34l1.28-0.82l-0.45-0.7l-1.28,0.82l-2.35-3.63l1.3-0.83l-0.45-0.7l-1.31,0.84l-0.95-1.46
				l-2.13,1.39c-0.16,0.1-0.37,0.06-0.48-0.1l-0.13-0.2c-0.11-0.16-0.06-0.38,0.1-0.48l2.52-1.64l-4.3-6.57l-0.79,0.51
				c-0.22,0.14-0.51,0.08-0.65-0.14c-0.14-0.22-0.08-0.51,0.14-0.65l6.69-4.34c0.22-0.14,0.51-0.08,0.65,0.14
				c0.14,0.22,0.08,0.51-0.14,0.65l-0.79,0.51l4.3,6.57l2.51-1.63c0.16-0.1,0.37-0.06,0.48,0.1l0.13,0.2
				c0.1,0.16,0.06,0.38-0.1,0.48l-2.13,1.39l0.98,1.51l11.23,17.29l1.51,2.33c0.01,0.01,0.02,0.02,0.03,0.04
				c0.01,0.01,0.01,0.03,0.02,0.05l0.01,0.02l-0.01,0c0,0.05-0.01,0.11-0.05,0.14l0.05-0.03l-0.63,2.95l0.15,0.24l0.26-0.17
				c0.09-0.06,0.21-0.03,0.27,0.06l0.07,0.11c0.06,0.09,0.03,0.21-0.06,0.27l-0.26,0.17l2.87,4.41c0.09,0.14-0.23,0.75-0.45,1.15
				L327.47-1.58"/>
		</g>
		<g>
			<path class="st1" d="M86.72-30.18c-2.52,3.1-7.34,3.34-10.78,0.55l0,0c-3.43-2.8-4.18-7.57-1.66-10.66l16.49-20.27
				c2.52-3.1,7.34-3.34,10.78-0.55l0,0c3.43,2.79,4.18,7.57,1.66,10.66L86.72-30.18z"/>
			<path class="st2" d="M103.6-49.28L88.04-30.23c-3.19,3.91-8.94,4.49-12.85,1.29c-3.91-3.19-4.49-8.95-1.29-12.85l15.57-19.05
				c3.19-3.91,8.95-4.48,12.85-1.3C106.22-58.94,106.8-53.19,103.6-49.28z M88.61-36.04c-0.12-0.11-0.36,0-0.36,0l-0.01-0.02
				c-4.42,2.96-9.19,2.69-10.99,2.45l-0.01,0.01c0,0-0.51,0.09-0.2,0.47c0.16,0.16,0.33,0.32,0.51,0.46c2.9,2.37,7.11,2,9.42-0.82
				l1.7-2.08C88.81-35.71,88.73-35.93,88.61-36.04z M100.74-59.92c-2.98-2.43-7.36-1.99-9.8,0.99l-6.31,7.72l10.95,8.63l3.33-4.08
				c0.05-0.07,0.1-0.13,0.15-0.2l2.67-3.27C104.16-53.1,103.72-57.49,100.74-59.92z"/>
			<path class="st2" d="M184.31-1.58c0.06,0.09,0.26,0.96,0.26,0.96s-0.7-0.54-0.76-0.63l-7.65-11.74c-0.42,0.02-1.16,0.05-1.26-0.1
				l-2.86-4.41l-0.26,0.17c-0.09,0.06-0.21,0.03-0.27-0.06l-0.07-0.11c-0.06-0.09-0.03-0.21,0.06-0.27l0.26-0.17l-0.15-0.23
				l-2.96-0.63l0.05-0.03c-0.05,0.02-0.11,0.02-0.15-0.01l-0.01,0.01l-0.01-0.02c-0.01-0.01-0.02-0.02-0.03-0.04
				c-0.01-0.01-0.02-0.03-0.02-0.05l-1.37-2.12l1.2-0.76l-0.45-0.71l-1.2,0.77l-2.17-3.34l1.23-0.78l-0.45-0.7l-1.23,0.79
				l-2.43-3.74l1.25-0.8l-0.45-0.7l-1.26,0.8l-2.17-3.34l1.28-0.82l-0.45-0.7l-1.28,0.82l-2.35-3.63l1.3-0.83l-0.45-0.7l-1.31,0.84
				l-0.95-1.46l-2.13,1.39c-0.16,0.1-0.37,0.06-0.48-0.1l-0.13-0.2c-0.11-0.16-0.06-0.38,0.1-0.48l2.52-1.64l-4.3-6.57l-0.79,0.51
				c-0.22,0.14-0.51,0.08-0.65-0.14c-0.14-0.22-0.08-0.51,0.14-0.65l6.69-4.34c0.22-0.14,0.51-0.08,0.65,0.14
				c0.14,0.22,0.08,0.51-0.14,0.65l-0.79,0.51l4.3,6.57l2.51-1.63c0.16-0.1,0.37-0.06,0.48,0.1l0.13,0.2
				c0.1,0.16,0.06,0.38-0.1,0.48l-2.13,1.39l0.98,1.51l11.23,17.29l1.51,2.33c0.01,0.01,0.02,0.02,0.03,0.04
				c0.01,0.01,0.01,0.03,0.02,0.05l0.01,0.02l-0.01,0c0,0.05-0.01,0.11-0.05,0.14l0.05-0.03l-0.63,2.95l0.15,0.24l0.26-0.17
				c0.09-0.06,0.21-0.03,0.27,0.06l0.07,0.11c0.06,0.09,0.03,0.21-0.06,0.27l-0.26,0.17l2.87,4.41c0.09,0.14-0.23,0.75-0.45,1.15
				L184.31-1.58"/>
		</g>
		<g>
			<path class="st2" d="M41.15-1.58c0.06,0.09,0.26,0.96,0.26,0.96s-0.7-0.54-0.76-0.63L33-12.99c-0.42,0.02-1.16,0.05-1.26-0.1
				l-2.86-4.41l-0.26,0.17c-0.09,0.06-0.21,0.03-0.27-0.06l-0.07-0.11c-0.06-0.09-0.03-0.21,0.06-0.27l0.26-0.17l-0.15-0.23
				l-2.96-0.63l0.05-0.03c-0.05,0.02-0.11,0.02-0.15-0.01l-0.01,0.01l-0.01-0.02c-0.01-0.01-0.02-0.02-0.03-0.04
				c-0.01-0.01-0.02-0.03-0.02-0.05l-1.37-2.12l1.2-0.76l-0.45-0.71l-1.2,0.77l-2.17-3.34l1.23-0.78l-0.45-0.7l-1.23,0.79
				l-2.43-3.74l1.25-0.8l-0.45-0.7l-1.26,0.8l-2.17-3.34l1.28-0.82l-0.45-0.7l-1.28,0.82l-2.35-3.63l1.3-0.83l-0.45-0.7l-1.31,0.84
				l-0.95-1.46l-2.13,1.39c-0.16,0.1-0.37,0.06-0.48-0.1l-0.13-0.2c-0.11-0.16-0.06-0.38,0.1-0.48l2.52-1.64l-4.3-6.57l-0.79,0.51
				c-0.22,0.14-0.51,0.08-0.65-0.14c-0.14-0.22-0.08-0.51,0.14-0.65l6.69-4.34c0.22-0.14,0.51-0.08,0.65,0.14
				c0.14,0.22,0.08,0.51-0.14,0.65l-0.79,0.51l4.3,6.57l2.51-1.63c0.16-0.1,0.37-0.06,0.48,0.1l0.13,0.2
				c0.1,0.16,0.06,0.38-0.1,0.48l-2.13,1.39l0.98,1.51L29.67-25.1l1.51,2.33c0.01,0.01,0.02,0.02,0.03,0.04
				c0.01,0.01,0.01,0.03,0.02,0.05l0.01,0.02l-0.01,0c0,0.05-0.01,0.11-0.05,0.14l0.05-0.03l-0.63,2.95l0.15,0.24l0.26-0.17
				c0.09-0.06,0.21-0.03,0.27,0.06l0.07,0.11c0.06,0.09,0.03,0.21-0.06,0.27l-0.26,0.17l2.87,4.41c0.09,0.14-0.23,0.75-0.45,1.15
				L41.15-1.58"/>
		</g>
		<g>
			<path class="st1" d="M408.84-170.84c-2.52,3.1-7.34,3.34-10.78,0.55l0,0c-3.43-2.8-4.18-7.57-1.66-10.66l16.49-20.27
				c2.52-3.1,7.34-3.34,10.78-0.55l0,0c3.43,2.79,4.18,7.57,1.66,10.66L408.84-170.84z"/>
			<path class="st2" d="M425.72-189.94l-15.57,19.06c-3.19,3.91-8.94,4.49-12.85,1.29c-3.91-3.19-4.49-8.95-1.29-12.85l15.57-19.05
				c3.19-3.91,8.95-4.48,12.85-1.3C428.33-199.6,428.91-193.85,425.72-189.94z M410.73-176.7c-0.12-0.11-0.36,0-0.36,0l-0.01-0.02
				c-4.42,2.96-9.19,2.69-10.99,2.45l-0.01,0.01c0,0-0.51,0.09-0.2,0.47c0.16,0.16,0.33,0.32,0.51,0.46c2.9,2.37,7.11,2,9.42-0.82
				l1.7-2.08C410.92-176.37,410.84-176.59,410.73-176.7z M422.85-200.58c-2.98-2.43-7.36-1.99-9.8,0.99l-6.31,7.72l10.95,8.63
				l3.33-4.08c0.05-0.07,0.1-0.13,0.15-0.2l2.67-3.27C426.27-193.76,425.83-198.15,422.85-200.58z"/>
			<path class="st3" d="M448.42-109.54l5.43-5.06c1.69-1.58,1.79-4.24,0.21-5.93l0,0l-4.77-5.1c-1.58-1.69-4.22-1.78-5.92-0.21
				l-5.83,5.43l-5.59-5.59c-1.64-1.64-4.29-1.64-5.93,0l-4.98,4.91c-1.64,1.64-1.64,4.29,0,5.93l5.26,5.24l-5.43,5.06
				c-1.7,1.58-1.79,4.23-0.21,5.93l0,0l4.77,5.11c0.75,0.84,1.81,1.35,2.94,1.4h0.14c1.04-0.01,2.04-0.42,2.8-1.13l5.83-5.43
				l2.88,2.89c0.26,0.26,0.62,0.41,0.99,0.41h9.43c0.37,0,0.73-0.14,0.99-0.41l2.21-2.21l0,0c1.64-1.64,1.64-4.29,0-5.93
				L448.42-109.54z"/>
			<path class="st4" d="M451.34-98.27c0.14-0.66-0.22-1.33-0.85-1.58l-6.99-2.8c-0.7-0.27-1.48,0.05-1.79,0.73l-1.9,4.2
				c-0.19,0.43-0.16,0.93,0.1,1.33c0.26,0.4,0.7,0.64,1.17,0.64h9.42c0.77,0,1.4-0.63,1.4-1.4
				C451.9-97.59,451.69-98.01,451.34-98.27L451.34-98.27z"/>
			<path class="st4" d="M431.06-119.53c1.93,0,3.5,1.57,3.5,3.5c0,1.93-1.56,3.5-3.5,3.5c-1.93,0-3.5-1.57-3.5-3.5
				C427.57-117.96,429.13-119.53,431.06-119.53z"/>
		</g>
		<g>
			<path class="st1" d="M265.67-170.84c-2.52,3.1-7.34,3.34-10.78,0.55l0,0c-3.43-2.8-4.18-7.57-1.66-10.66l16.49-20.27
				c2.52-3.1,7.34-3.34,10.78-0.55l0,0c3.43,2.79,4.18,7.57,1.66,10.66L265.67-170.84z"/>
			<path class="st2" d="M282.56-189.94l-15.57,19.06c-3.19,3.91-8.94,4.49-12.85,1.29c-3.91-3.19-4.49-8.95-1.29-12.85l15.57-19.05
				c3.19-3.91,8.95-4.48,12.85-1.3C285.17-199.6,285.75-193.85,282.56-189.94z M267.56-176.7c-0.12-0.11-0.36,0-0.36,0l-0.01-0.02
				c-4.42,2.96-9.19,2.69-10.99,2.45l-0.01,0.01c0,0-0.51,0.09-0.2,0.47c0.16,0.16,0.33,0.32,0.51,0.46c2.9,2.37,7.11,2,9.42-0.82
				l1.7-2.08C267.76-176.37,267.68-176.59,267.56-176.7z M279.69-200.58c-2.98-2.43-7.36-1.99-9.8,0.99l-6.31,7.72l10.95,8.63
				l3.33-4.08c0.05-0.07,0.1-0.13,0.15-0.2l2.67-3.27C283.11-193.76,282.67-198.15,279.69-200.58z"/>
			<g class="st5">
				<path class="st6" d="M382.74-96.19l-18.15-5.87c-0.75,2.32-0.62,4.93,0.58,7.28c2.4,4.69,8.14,6.55,12.83,4.15
					C380.35-91.83,381.98-93.87,382.74-96.19z"/>
				<path class="st6" d="M364.81-102.75l18.15,5.87c0.75-2.32,0.62-4.93-0.58-7.28c-2.4-4.69-8.14-6.55-12.84-4.15
					C367.2-107.11,365.56-105.07,364.81-102.75z"/>
			</g>
			<path class="st2" d="M363.26-142.24c0.06,0.09,0.26,0.96,0.26,0.96s-0.7-0.54-0.76-0.63l-7.65-11.74
				c-0.42,0.02-1.16,0.05-1.26-0.1l-2.86-4.41l-0.26,0.17c-0.09,0.06-0.21,0.03-0.27-0.06l-0.07-0.11
				c-0.06-0.09-0.03-0.21,0.06-0.27l0.26-0.17l-0.15-0.23l-2.96-0.63l0.05-0.03c-0.05,0.02-0.11,0.02-0.15-0.01l-0.01,0.01
				l-0.01-0.02c-0.01-0.01-0.02-0.02-0.03-0.04c-0.01-0.01-0.02-0.03-0.02-0.05l-1.37-2.12l1.2-0.76l-0.45-0.71l-1.2,0.77
				l-2.17-3.34l1.23-0.78l-0.45-0.7l-1.23,0.79l-2.43-3.74l1.25-0.8l-0.45-0.7l-1.26,0.8l-2.17-3.34l1.28-0.82l-0.45-0.7l-1.28,0.82
				l-2.35-3.63l1.3-0.83l-0.45-0.7l-1.31,0.84l-0.95-1.46l-2.13,1.39c-0.16,0.1-0.37,0.06-0.48-0.1l-0.13-0.2
				c-0.11-0.16-0.06-0.38,0.1-0.48l2.52-1.64l-4.3-6.57l-0.79,0.51c-0.22,0.14-0.51,0.08-0.65-0.14c-0.14-0.22-0.08-0.51,0.14-0.65
				l6.69-4.34c0.21-0.14,0.51-0.08,0.65,0.14c0.14,0.22,0.08,0.51-0.14,0.65l-0.79,0.51l4.3,6.57l2.51-1.63
				c0.16-0.1,0.37-0.06,0.48,0.1l0.13,0.2c0.1,0.16,0.06,0.38-0.1,0.48l-2.13,1.39l0.98,1.51l11.23,17.29l1.51,2.33
				c0.01,0.01,0.02,0.02,0.03,0.04c0.01,0.01,0.01,0.03,0.02,0.05l0.01,0.02l-0.01,0c0,0.05-0.01,0.11-0.05,0.14l0.05-0.03
				l-0.63,2.95l0.15,0.24l0.26-0.17c0.09-0.06,0.21-0.03,0.27,0.06l0.07,0.11c0.06,0.09,0.03,0.21-0.06,0.27l-0.26,0.17l2.87,4.41
				c0.09,0.14-0.23,0.75-0.45,1.15L363.26-142.24"/>
			<path class="st3" d="M305.25-109.54l5.43-5.06c1.69-1.58,1.79-4.24,0.21-5.93l0,0l-4.77-5.1c-1.58-1.69-4.22-1.78-5.92-0.21
				l-5.83,5.43l-5.59-5.59c-1.64-1.64-4.29-1.64-5.93,0l-4.98,4.91c-1.64,1.64-1.64,4.29,0,5.93l5.26,5.24l-5.43,5.06
				c-1.7,1.58-1.79,4.23-0.21,5.93l0,0l4.77,5.11c0.75,0.84,1.81,1.35,2.94,1.4h0.14c1.04-0.01,2.04-0.42,2.8-1.13l5.83-5.43
				l2.88,2.89c0.26,0.26,0.62,0.41,0.99,0.41h9.43c0.37,0,0.73-0.14,0.99-0.41l2.21-2.21l0,0c1.64-1.64,1.64-4.29,0-5.93
				L305.25-109.54z"/>
			<path class="st4" d="M308.18-98.27c0.14-0.66-0.22-1.33-0.85-1.58l-6.99-2.8c-0.7-0.27-1.48,0.05-1.79,0.73l-1.9,4.2
				c-0.19,0.43-0.16,0.93,0.1,1.33c0.26,0.4,0.7,0.64,1.17,0.64h9.42c0.77,0,1.4-0.63,1.4-1.4
				C308.74-97.59,308.53-98.01,308.18-98.27L308.18-98.27z"/>
			<path class="st4" d="M287.9-119.53c1.93,0,3.5,1.57,3.5,3.5c0,1.93-1.56,3.5-3.5,3.5c-1.93,0-3.5-1.57-3.5-3.5
				C284.4-117.96,285.97-119.53,287.9-119.53z"/>
		</g>
		<g>
			<path class="st1" d="M122.51-170.84c-2.52,3.1-7.34,3.34-10.78,0.55l0,0c-3.43-2.8-4.18-7.57-1.66-10.66l16.49-20.27
				c2.52-3.1,7.34-3.34,10.78-0.55l0,0c3.43,2.79,4.18,7.57,1.66,10.66L122.51-170.84z"/>
			<path class="st2" d="M139.4-189.94l-15.57,19.06c-3.19,3.91-8.94,4.49-12.85,1.29c-3.91-3.19-4.49-8.95-1.29-12.85l15.57-19.05
				c3.19-3.91,8.95-4.48,12.85-1.3C142.01-199.6,142.59-193.85,139.4-189.94z M124.4-176.7c-0.12-0.11-0.36,0-0.36,0l-0.01-0.02
				c-4.42,2.96-9.19,2.69-10.99,2.45l-0.01,0.01c0,0-0.51,0.09-0.2,0.47c0.16,0.16,0.33,0.32,0.51,0.46c2.9,2.37,7.11,2,9.42-0.82
				l1.7-2.08C124.6-176.37,124.52-176.59,124.4-176.7z M136.53-200.58c-2.98-2.43-7.36-1.99-9.8,0.99l-6.31,7.72l10.95,8.63
				l3.33-4.08c0.05-0.07,0.1-0.13,0.15-0.2l2.67-3.27C139.95-193.76,139.51-198.15,136.53-200.58z"/>
			<g class="st5">
				<path class="st6" d="M239.57-96.19l-18.15-5.87c-0.75,2.32-0.62,4.93,0.58,7.28c2.4,4.69,8.14,6.55,12.83,4.15
					C237.19-91.83,238.82-93.87,239.57-96.19z"/>
				<path class="st6" d="M221.65-102.75l18.15,5.87c0.75-2.32,0.62-4.93-0.58-7.28c-2.4-4.69-8.14-6.55-12.84-4.15
					C224.03-107.11,222.4-105.07,221.65-102.75z"/>
			</g>
			<path class="st2" d="M220.1-142.24c0.06,0.09,0.26,0.96,0.26,0.96s-0.7-0.54-0.76-0.63l-7.65-11.74
				c-0.42,0.02-1.16,0.05-1.26-0.1l-2.86-4.41l-0.26,0.17c-0.09,0.06-0.21,0.03-0.27-0.06l-0.07-0.11
				c-0.06-0.09-0.03-0.21,0.06-0.27l0.26-0.17l-0.15-0.23l-2.96-0.63l0.05-0.03c-0.05,0.02-0.11,0.02-0.15-0.01l-0.01,0.01
				l-0.01-0.02c-0.01-0.01-0.02-0.02-0.03-0.04c-0.01-0.01-0.02-0.03-0.02-0.05l-1.37-2.12l1.2-0.76l-0.45-0.71l-1.2,0.77
				l-2.17-3.34l1.23-0.78l-0.45-0.7l-1.23,0.79l-2.43-3.74l1.25-0.8l-0.45-0.7l-1.26,0.8l-2.17-3.34l1.28-0.82l-0.45-0.7l-1.28,0.82
				l-2.35-3.63l1.3-0.83l-0.45-0.7l-1.31,0.84l-0.95-1.46l-2.13,1.39c-0.16,0.1-0.37,0.06-0.48-0.1l-0.13-0.2
				c-0.11-0.16-0.06-0.38,0.1-0.48l2.52-1.64l-4.3-6.57l-0.79,0.51c-0.22,0.14-0.51,0.08-0.65-0.14c-0.14-0.22-0.08-0.51,0.14-0.65
				l6.69-4.34c0.22-0.14,0.51-0.08,0.65,0.14c0.14,0.22,0.08,0.51-0.14,0.65l-0.79,0.51l4.3,6.57l2.51-1.63
				c0.16-0.1,0.37-0.06,0.48,0.1l0.13,0.2c0.1,0.16,0.06,0.38-0.1,0.48l-2.13,1.39l0.98,1.51l11.23,17.29l1.51,2.33
				c0.01,0.01,0.02,0.02,0.03,0.04c0.01,0.01,0.01,0.03,0.02,0.05l0.01,0.02l-0.01,0c0,0.05-0.01,0.11-0.05,0.14l0.05-0.03
				l-0.63,2.95l0.15,0.24l0.26-0.17c0.09-0.06,0.21-0.03,0.27,0.06l0.07,0.11c0.06,0.09,0.03,0.21-0.06,0.27l-0.26,0.17l2.87,4.41
				c0.09,0.14-0.23,0.75-0.45,1.15L220.1-142.24"/>
			<path class="st3" d="M162.09-109.54l5.43-5.06c1.69-1.58,1.79-4.24,0.21-5.93l0,0l-4.77-5.1c-1.58-1.69-4.22-1.78-5.92-0.21
				l-5.83,5.43l-5.59-5.59c-1.64-1.64-4.29-1.64-5.93,0l-4.98,4.91c-1.64,1.64-1.64,4.29,0,5.93l5.26,5.24l-5.43,5.06
				c-1.7,1.58-1.79,4.23-0.21,5.93l0,0l4.77,5.11c0.75,0.84,1.81,1.35,2.94,1.4h0.14c1.04-0.01,2.04-0.42,2.8-1.13l5.83-5.43
				l2.88,2.89c0.26,0.26,0.62,0.41,0.99,0.41h9.43c0.37,0,0.73-0.14,0.99-0.41l2.21-2.21l0,0c1.64-1.64,1.64-4.29,0-5.93
				L162.09-109.54z"/>
			<path class="st4" d="M165.02-98.27c0.14-0.66-0.22-1.33-0.85-1.58l-6.99-2.8c-0.7-0.27-1.48,0.05-1.79,0.73l-1.9,4.2
				c-0.19,0.43-0.16,0.93,0.1,1.33c0.26,0.4,0.7,0.64,1.17,0.64h9.42c0.77,0,1.4-0.63,1.4-1.4
				C165.57-97.59,165.37-98.01,165.02-98.27L165.02-98.27z"/>
			<path class="st4" d="M144.74-119.53c1.93,0,3.5,1.57,3.5,3.5c0,1.93-1.56,3.5-3.5,3.5c-1.93,0-3.5-1.57-3.5-3.5
				C141.24-117.96,142.81-119.53,144.74-119.53z"/>
		</g>
		<g>
			<g class="st5">
				<path class="st6" d="M96.41-96.19l-18.15-5.87c-0.75,2.32-0.62,4.93,0.58,7.28c2.4,4.69,8.14,6.55,12.83,4.15
					C94.02-91.83,95.66-93.87,96.41-96.19z"/>
				<path class="st6" d="M78.48-102.75l18.15,5.87c0.75-2.32,0.62-4.93-0.58-7.28c-2.4-4.69-8.14-6.55-12.84-4.15
					C80.87-107.11,79.24-105.07,78.48-102.75z"/>
			</g>
			<path class="st2" d="M76.94-142.24c0.06,0.09,0.26,0.96,0.26,0.96s-0.7-0.54-0.76-0.63l-7.65-11.74
				c-0.42,0.02-1.16,0.05-1.26-0.1l-2.86-4.41L64.4-158c-0.09,0.06-0.21,0.03-0.27-0.06l-0.07-0.11c-0.06-0.09-0.03-0.21,0.06-0.27
				l0.26-0.17l-0.15-0.23l-2.96-0.63l0.05-0.03c-0.05,0.02-0.11,0.02-0.15-0.01l-0.01,0.01l-0.01-0.02
				c-0.01-0.01-0.02-0.02-0.03-0.04c-0.01-0.01-0.02-0.03-0.02-0.05l-1.37-2.12l1.2-0.76l-0.45-0.71l-1.2,0.77l-2.17-3.34l1.23-0.78
				l-0.45-0.7l-1.23,0.79l-2.43-3.74l1.25-0.8l-0.45-0.7l-1.26,0.8l-2.17-3.34l1.28-0.82l-0.45-0.7l-1.28,0.82l-2.35-3.63l1.3-0.83
				l-0.45-0.7l-1.31,0.84l-0.95-1.46l-2.13,1.39c-0.16,0.1-0.37,0.06-0.48-0.1l-0.13-0.2c-0.11-0.16-0.06-0.38,0.1-0.48l2.52-1.64
				l-4.3-6.57l-0.79,0.51c-0.22,0.14-0.51,0.08-0.65-0.14c-0.14-0.22-0.08-0.51,0.14-0.65l6.69-4.34c0.22-0.14,0.51-0.08,0.65,0.14
				c0.14,0.22,0.08,0.51-0.14,0.65l-0.79,0.51l4.3,6.57l2.51-1.63c0.16-0.1,0.37-0.06,0.48,0.1l0.13,0.2
				c0.1,0.16,0.06,0.38-0.1,0.48l-2.13,1.39l0.98,1.51l11.23,17.29l1.51,2.33c0.01,0.01,0.02,0.02,0.03,0.04
				c0.01,0.01,0.01,0.03,0.02,0.05l0.01,0.02l-0.01,0c0,0.05-0.01,0.11-0.05,0.14l0.05-0.03l-0.63,2.95l0.15,0.24l0.26-0.17
				c0.09-0.06,0.21-0.03,0.27,0.06l0.07,0.11c0.06,0.09,0.03,0.21-0.06,0.27l-0.26,0.17l2.87,4.41c0.09,0.14-0.23,0.75-0.45,1.15
				L76.94-142.24"/>
		</g>
		<g>
			<path class="st1" d="M444.63-311.5c-2.52,3.1-7.34,3.34-10.78,0.55l0,0c-3.43-2.8-4.18-7.57-1.66-10.66l16.49-20.27
				c2.52-3.1,7.34-3.34,10.78-0.55l0,0c3.43,2.79,4.18,7.57,1.66,10.66L444.63-311.5z"/>
			<path class="st2" d="M461.51-330.6l-15.57,19.06c-3.19,3.91-8.94,4.49-12.85,1.29c-3.91-3.19-4.49-8.95-1.29-12.85l15.57-19.05
				c3.19-3.91,8.95-4.48,12.85-1.3C464.12-340.26,464.7-334.51,461.51-330.6z M446.52-317.36c-0.12-0.11-0.36,0-0.36,0l-0.01-0.02
				c-4.42,2.96-9.19,2.69-10.99,2.45l-0.01,0.01c0,0-0.51,0.09-0.2,0.47c0.16,0.16,0.33,0.32,0.51,0.46c2.9,2.37,7.11,2,9.42-0.82
				l1.7-2.08C446.71-317.03,446.63-317.25,446.52-317.36z M458.65-341.24c-2.98-2.43-7.36-1.99-9.8,0.99l-6.31,7.72l10.95,8.63
				l3.33-4.08c0.05-0.07,0.1-0.13,0.15-0.2l2.67-3.27C462.06-334.42,461.62-338.81,458.65-341.24z"/>
			<path class="st3" d="M484.21-250.2l5.43-5.06c1.69-1.58,1.79-4.24,0.21-5.93l0,0l-4.77-5.1c-1.58-1.69-4.22-1.78-5.92-0.21
				l-5.83,5.43l-5.59-5.59c-1.64-1.64-4.29-1.64-5.93,0l-4.98,4.91c-1.64,1.64-1.64,4.29,0,5.93l5.26,5.24l-5.43,5.06
				c-1.7,1.58-1.79,4.23-0.21,5.93l0,0l4.77,5.11c0.75,0.84,1.81,1.35,2.94,1.4h0.14c1.04-0.01,2.04-0.42,2.8-1.13l5.83-5.43
				l2.88,2.89c0.26,0.26,0.62,0.41,0.99,0.41h9.43c0.37,0,0.73-0.14,0.99-0.41l2.21-2.21l0,0c1.64-1.64,1.64-4.29,0-5.93
				L484.21-250.2z"/>
		</g>
		<g>
			<path class="st1" d="M301.47-311.5c-2.52,3.1-7.34,3.34-10.78,0.55l0,0c-3.43-2.8-4.18-7.57-1.66-10.66l16.49-20.27
				c2.52-3.1,7.34-3.34,10.78-0.55l0,0c3.43,2.79,4.18,7.57,1.66,10.66L301.47-311.5z"/>
			<path class="st2" d="M318.35-330.6l-15.57,19.06c-3.19,3.91-8.94,4.49-12.85,1.29c-3.91-3.19-4.49-8.95-1.29-12.85l15.57-19.05
				c3.19-3.91,8.95-4.48,12.85-1.3C320.96-340.26,321.54-334.51,318.35-330.6z M303.35-317.36c-0.12-0.11-0.36,0-0.36,0l-0.01-0.02
				c-4.42,2.96-9.19,2.69-10.99,2.45l-0.01,0.01c0,0-0.51,0.09-0.2,0.47c0.16,0.16,0.33,0.32,0.51,0.46c2.9,2.37,7.11,2,9.42-0.82
				l1.7-2.08C303.55-317.03,303.47-317.25,303.35-317.36z M315.48-341.24c-2.98-2.43-7.36-1.99-9.8,0.99l-6.31,7.72l10.95,8.63
				l3.33-4.08c0.05-0.07,0.1-0.13,0.15-0.2l2.67-3.27C318.9-334.42,318.46-338.81,315.48-341.24z"/>
			<g class="st5">
				<path class="st6" d="M418.53-236.85l-18.15-5.87c-0.75,2.32-0.62,4.93,0.58,7.28c2.4,4.69,8.14,6.55,12.83,4.15
					C416.14-232.49,417.77-234.53,418.53-236.85z"/>
				<path class="st6" d="M400.6-243.41l18.15,5.87c0.75-2.32,0.62-4.93-0.58-7.28c-2.4-4.69-8.14-6.55-12.84-4.15
					C402.99-247.77,401.35-245.73,400.6-243.41z"/>
			</g>
			<path class="st2" d="M399.05-282.91c0.06,0.09,0.26,0.96,0.26,0.96s-0.7-0.54-0.76-0.63l-7.65-11.74
				c-0.42,0.02-1.16,0.05-1.26-0.1l-2.86-4.41l-0.26,0.17c-0.09,0.06-0.21,0.03-0.27-0.06l-0.07-0.11
				c-0.06-0.09-0.03-0.21,0.06-0.27l0.26-0.17l-0.15-0.23l-2.96-0.63l0.05-0.03c-0.05,0.02-0.11,0.02-0.15-0.01l-0.01,0.01
				l-0.01-0.02c-0.01-0.01-0.02-0.02-0.03-0.04c-0.01-0.01-0.02-0.03-0.02-0.05l-1.37-2.12l1.2-0.76l-0.45-0.71l-1.2,0.77
				l-2.17-3.34l1.23-0.78l-0.45-0.7l-1.23,0.79l-2.43-3.74l1.25-0.8l-0.45-0.7l-1.26,0.8l-2.17-3.34l1.28-0.82l-0.45-0.7l-1.28,0.82
				l-2.35-3.63l1.3-0.83l-0.45-0.7l-1.31,0.84l-0.95-1.46l-2.13,1.39c-0.16,0.1-0.37,0.06-0.48-0.1l-0.13-0.2
				c-0.11-0.16-0.06-0.38,0.1-0.48l2.52-1.64l-4.3-6.57l-0.79,0.51c-0.22,0.14-0.51,0.08-0.65-0.14c-0.14-0.22-0.08-0.51,0.14-0.65
				l6.69-4.34c0.22-0.14,0.51-0.08,0.65,0.14c0.14,0.22,0.08,0.51-0.14,0.65l-0.79,0.51l4.3,6.57l2.51-1.63
				c0.16-0.1,0.37-0.06,0.48,0.1l0.13,0.2c0.1,0.16,0.06,0.38-0.1,0.48l-2.13,1.39l0.98,1.51l11.23,17.29l1.51,2.33
				c0.01,0.01,0.02,0.02,0.03,0.04c0.01,0.01,0.01,0.03,0.02,0.05l0.01,0.02l-0.01,0c0,0.05-0.01,0.11-0.05,0.14l0.05-0.03
				l-0.63,2.95l0.15,0.23l0.26-0.17c0.09-0.06,0.21-0.03,0.27,0.06l0.07,0.11c0.06,0.09,0.03,0.21-0.06,0.27l-0.26,0.17l2.87,4.41
				c0.09,0.14-0.23,0.75-0.45,1.15L399.05-282.91"/>
			<path class="st3" d="M341.04-250.2l5.43-5.06c1.69-1.58,1.79-4.24,0.21-5.93l0,0l-4.77-5.1c-1.58-1.69-4.22-1.78-5.92-0.21
				l-5.83,5.43l-5.59-5.59c-1.64-1.64-4.29-1.64-5.93,0l-4.98,4.91c-1.64,1.64-1.64,4.29,0,5.93l5.26,5.24l-5.43,5.06
				c-1.7,1.58-1.79,4.23-0.21,5.93l0,0l4.77,5.11c0.75,0.84,1.81,1.35,2.94,1.4h0.14c1.04-0.01,2.04-0.42,2.8-1.13l5.83-5.43
				l2.88,2.89c0.26,0.26,0.62,0.41,0.99,0.41h9.43c0.37,0,0.73-0.14,0.99-0.41l2.21-2.21l0,0c1.64-1.64,1.64-4.29,0-5.93
				L341.04-250.2z"/>
			<path class="st4" d="M343.97-238.93c0.14-0.66-0.22-1.33-0.85-1.58l-6.99-2.8c-0.7-0.27-1.48,0.05-1.79,0.73l-1.9,4.2
				c-0.19,0.43-0.16,0.93,0.1,1.33c0.26,0.4,0.7,0.64,1.17,0.64h9.42c0.77,0,1.4-0.63,1.4-1.4
				C344.53-238.25,344.32-238.67,343.97-238.93L343.97-238.93z"/>
			<path class="st4" d="M323.69-260.19c1.93,0,3.5,1.57,3.5,3.5c0,1.93-1.56,3.5-3.5,3.5c-1.93,0-3.5-1.57-3.5-3.5
				C320.19-258.62,321.76-260.19,323.69-260.19z"/>
		</g>
		<g>
			<path class="st1" d="M158.3-311.5c-2.52,3.1-7.34,3.34-10.78,0.55l0,0c-3.43-2.8-4.18-7.57-1.66-10.66l16.49-20.27
				c2.52-3.1,7.34-3.34,10.78-0.55l0,0c3.43,2.79,4.18,7.57,1.66,10.66L158.3-311.5z"/>
			<path class="st2" d="M175.19-330.6l-15.57,19.06c-3.19,3.91-8.94,4.49-12.85,1.29c-3.91-3.19-4.49-8.95-1.29-12.85l15.57-19.05
				c3.19-3.91,8.95-4.48,12.85-1.3C177.8-340.26,178.38-334.51,175.19-330.6z M160.19-317.36c-0.12-0.11-0.36,0-0.36,0l-0.01-0.02
				c-4.42,2.96-9.19,2.69-10.99,2.45l-0.01,0.01c0,0-0.51,0.09-0.2,0.47c0.16,0.16,0.33,0.32,0.51,0.46c2.9,2.37,7.11,2,9.42-0.82
				l1.7-2.08C160.39-317.03,160.31-317.25,160.19-317.36z M172.32-341.24c-2.98-2.43-7.36-1.99-9.8,0.99l-6.31,7.72l10.95,8.63
				l3.33-4.08c0.05-0.07,0.1-0.13,0.15-0.2l2.67-3.27C175.74-334.42,175.3-338.81,172.32-341.24z"/>
			<g class="st5">
				<path class="st6" d="M275.36-236.85l-18.15-5.87c-0.75,2.32-0.62,4.93,0.58,7.28c2.4,4.69,8.14,6.55,12.83,4.15
					C272.98-232.49,274.61-234.53,275.36-236.85z"/>
				<path class="st6" d="M257.44-243.41l18.15,5.87c0.75-2.32,0.62-4.93-0.58-7.28c-2.4-4.69-8.14-6.55-12.84-4.15
					C259.82-247.77,258.19-245.73,257.44-243.41z"/>
			</g>
			<path class="st2" d="M255.89-282.91c0.06,0.09,0.26,0.96,0.26,0.96s-0.7-0.54-0.76-0.63l-7.65-11.74
				c-0.42,0.02-1.16,0.05-1.26-0.1l-2.86-4.41l-0.26,0.17c-0.09,0.06-0.21,0.03-0.27-0.06l-0.07-0.11
				c-0.06-0.09-0.03-0.21,0.06-0.27l0.26-0.17l-0.15-0.23l-2.96-0.63l0.05-0.03c-0.05,0.02-0.11,0.02-0.15-0.01l-0.01,0.01
				l-0.01-0.02c-0.01-0.01-0.02-0.02-0.03-0.04c-0.01-0.01-0.02-0.03-0.02-0.05l-1.37-2.12l1.2-0.76l-0.45-0.71l-1.2,0.77
				l-2.17-3.34l1.23-0.78l-0.45-0.7l-1.23,0.79l-2.43-3.74l1.25-0.8l-0.45-0.7l-1.26,0.8l-2.17-3.34l1.28-0.82l-0.45-0.7l-1.28,0.82
				l-2.35-3.63l1.3-0.83l-0.45-0.7l-1.31,0.84l-0.95-1.46l-2.13,1.39c-0.16,0.1-0.37,0.06-0.48-0.1l-0.13-0.2
				c-0.11-0.16-0.06-0.38,0.1-0.48l2.52-1.64l-4.3-6.57l-0.79,0.51c-0.22,0.14-0.51,0.08-0.65-0.14c-0.14-0.22-0.08-0.51,0.14-0.65
				l6.69-4.34c0.22-0.14,0.51-0.08,0.65,0.14c0.14,0.22,0.08,0.51-0.14,0.65l-0.79,0.51l4.3,6.57l2.51-1.63
				c0.16-0.1,0.37-0.06,0.48,0.1l0.13,0.2c0.1,0.16,0.06,0.38-0.1,0.48l-2.13,1.39l0.98,1.51l11.23,17.29l1.51,2.33
				c0.01,0.01,0.02,0.02,0.03,0.04c0.01,0.01,0.01,0.03,0.02,0.05l0.01,0.02l-0.01,0c0,0.05-0.01,0.11-0.05,0.14l0.05-0.03
				l-0.63,2.95l0.15,0.23l0.26-0.17c0.09-0.06,0.21-0.03,0.27,0.06l0.07,0.11c0.06,0.09,0.03,0.21-0.06,0.27l-0.26,0.17l2.87,4.41
				c0.09,0.14-0.23,0.75-0.45,1.15L255.89-282.91"/>
			<path class="st3" d="M197.88-250.2l5.43-5.06c1.69-1.58,1.79-4.24,0.21-5.93l0,0l-4.77-5.1c-1.58-1.69-4.22-1.78-5.92-0.21
				l-5.83,5.43l-5.59-5.59c-1.64-1.64-4.29-1.64-5.93,0l-4.98,4.91c-1.64,1.64-1.64,4.29,0,5.93l5.26,5.24l-5.43,5.06
				c-1.7,1.58-1.79,4.23-0.21,5.93l0,0l4.77,5.11c0.75,0.84,1.81,1.35,2.94,1.4h0.14c1.04-0.01,2.04-0.42,2.8-1.13l5.83-5.43
				l2.88,2.89c0.26,0.26,0.62,0.41,0.99,0.41h9.43c0.37,0,0.73-0.14,0.99-0.41l2.21-2.21l0,0c1.64-1.64,1.64-4.29,0-5.93
				L197.88-250.2z"/>
			<path class="st4" d="M200.81-238.93c0.14-0.66-0.22-1.33-0.85-1.58l-6.99-2.8c-0.7-0.27-1.48,0.05-1.79,0.73l-1.9,4.2
				c-0.19,0.43-0.16,0.93,0.1,1.33c0.26,0.4,0.7,0.64,1.17,0.64h9.42c0.77,0,1.4-0.63,1.4-1.4
				C201.37-238.25,201.16-238.67,200.81-238.93L200.81-238.93z"/>
			<path class="st4" d="M180.53-260.19c1.93,0,3.5,1.57,3.5,3.5c0,1.93-1.56,3.5-3.5,3.5c-1.93,0-3.5-1.57-3.5-3.5
				C177.03-258.62,178.6-260.19,180.53-260.19z"/>
		</g>
		<g>
			<path class="st1" d="M15.14-311.5c-2.52,3.1-7.34,3.34-10.78,0.55l0,0c-3.43-2.8-4.18-7.57-1.66-10.66l16.49-20.27
				c2.52-3.1,7.34-3.34,10.78-0.55l0,0c3.43,2.79,4.18,7.57,1.66,10.66L15.14-311.5z"/>
			<path class="st2" d="M32.02-330.6l-15.57,19.06c-3.19,3.91-8.94,4.49-12.85,1.29c-3.91-3.19-4.49-8.95-1.29-12.85l15.57-19.05
				c3.19-3.91,8.95-4.48,12.85-1.3C34.64-340.26,35.22-334.51,32.02-330.6z M17.03-317.36c-0.12-0.11-0.36,0-0.36,0l-0.01-0.02
				c-4.42,2.96-9.19,2.69-10.99,2.45l-0.01,0.01c0,0-0.51,0.09-0.2,0.47c0.16,0.16,0.33,0.32,0.51,0.46c2.9,2.37,7.11,2,9.42-0.82
				l1.7-2.08C17.23-317.03,17.15-317.25,17.03-317.36z M29.16-341.24c-2.98-2.43-7.36-1.99-9.8,0.99l-6.31,7.72L24-323.9l3.33-4.08
				c0.05-0.07,0.1-0.13,0.15-0.2l2.67-3.27C32.58-334.42,32.14-338.81,29.16-341.24z"/>
			<g class="st5">
				<path class="st6" d="M132.2-236.85l-18.15-5.87c-0.75,2.32-0.62,4.93,0.58,7.28c2.4,4.69,8.14,6.55,12.83,4.15
					C129.81-232.49,131.45-234.53,132.2-236.85z"/>
				<path class="st6" d="M114.27-243.41l18.15,5.87c0.75-2.32,0.62-4.93-0.58-7.28c-2.4-4.69-8.14-6.55-12.84-4.15
					C116.66-247.77,115.03-245.73,114.27-243.41z"/>
			</g>
			<path class="st2" d="M112.73-282.91c0.06,0.09,0.26,0.96,0.26,0.96s-0.7-0.54-0.76-0.63l-7.65-11.74
				c-0.42,0.02-1.16,0.05-1.26-0.1l-2.86-4.41l-0.26,0.17c-0.09,0.06-0.21,0.03-0.27-0.06l-0.07-0.11
				c-0.06-0.09-0.03-0.21,0.06-0.27l0.26-0.17l-0.15-0.23l-2.96-0.63l0.05-0.03c-0.05,0.02-0.11,0.02-0.15-0.01l-0.01,0.01
				l-0.01-0.02c-0.01-0.01-0.02-0.02-0.03-0.04c-0.01-0.01-0.02-0.03-0.02-0.05l-1.37-2.12l1.2-0.76l-0.45-0.71l-1.2,0.77
				l-2.17-3.34l1.23-0.78l-0.45-0.7l-1.23,0.79L90-310.89l1.25-0.8l-0.45-0.7l-1.26,0.8l-2.17-3.34l1.28-0.82l-0.45-0.7l-1.28,0.82
				l-2.35-3.63l1.3-0.83l-0.45-0.7l-1.31,0.84l-0.95-1.46l-2.13,1.39c-0.16,0.1-0.37,0.06-0.48-0.1l-0.13-0.2
				c-0.11-0.16-0.06-0.38,0.1-0.48l2.52-1.64l-4.3-6.57l-0.79,0.51c-0.22,0.14-0.51,0.08-0.65-0.14c-0.14-0.22-0.08-0.51,0.14-0.65
				l6.69-4.34c0.22-0.14,0.51-0.08,0.65,0.14c0.14,0.22,0.08,0.51-0.14,0.65l-0.79,0.51l4.3,6.57l2.51-1.63
				c0.16-0.1,0.37-0.06,0.48,0.1l0.13,0.2c0.1,0.16,0.06,0.38-0.1,0.48l-2.13,1.39l0.98,1.51l11.23,17.29l1.51,2.33
				c0.01,0.01,0.02,0.02,0.03,0.04c0.01,0.01,0.01,0.03,0.02,0.05l0.01,0.02l-0.01,0c0,0.05-0.01,0.11-0.05,0.14l0.05-0.03
				l-0.63,2.95l0.15,0.23l0.26-0.17c0.09-0.06,0.21-0.03,0.27,0.06l0.07,0.11c0.06,0.09,0.03,0.21-0.06,0.27l-0.26,0.17l2.87,4.41
				c0.09,0.14-0.23,0.75-0.45,1.15L112.73-282.91"/>
			<path class="st3" d="M54.72-250.2l5.43-5.06c1.69-1.58,1.79-4.24,0.21-5.93l0,0l-4.77-5.1c-1.58-1.69-4.22-1.78-5.92-0.21
				l-5.83,5.43l-5.59-5.59c-1.64-1.64-4.29-1.64-5.93,0l-4.98,4.91c-1.64,1.64-1.64,4.29,0,5.93l5.26,5.24l-5.43,5.06
				c-1.7,1.58-1.79,4.23-0.21,5.93l0,0l4.77,5.11c0.75,0.84,1.81,1.35,2.94,1.4h0.14c1.04-0.01,2.04-0.42,2.8-1.13l5.83-5.43
				l2.88,2.89c0.26,0.26,0.62,0.41,0.99,0.41h9.43c0.37,0,0.73-0.14,0.99-0.41l2.21-2.21l0,0c1.64-1.64,1.64-4.29,0-5.93
				L54.72-250.2z"/>
			<path class="st4" d="M57.64-238.93c0.14-0.66-0.22-1.33-0.85-1.58l-6.99-2.8c-0.7-0.27-1.48,0.05-1.79,0.73l-1.9,4.2
				c-0.19,0.43-0.16,0.93,0.1,1.33c0.26,0.4,0.7,0.64,1.17,0.64h9.42c0.77,0,1.4-0.63,1.4-1.4C58.2-238.25,58-238.67,57.64-238.93
				L57.64-238.93z"/>
			<path class="st4" d="M37.37-260.19c1.93,0,3.5,1.57,3.5,3.5c0,1.93-1.56,3.5-3.5,3.5c-1.93,0-3.5-1.57-3.5-3.5
				C33.87-258.62,35.44-260.19,37.37-260.19z"/>
		</g>
		<g>
			<path class="st1" d="M337.26-452.16c-2.52,3.1-7.34,3.34-10.78,0.55l0,0c-3.43-2.8-4.18-7.57-1.66-10.66l16.49-20.27
				c2.52-3.1,7.34-3.34,10.78-0.55l0,0c3.43,2.79,4.18,7.57,1.66,10.66L337.26-452.16z"/>
			<path class="st2" d="M354.14-471.26l-15.57,19.06c-3.19,3.91-8.94,4.49-12.85,1.29c-3.91-3.19-4.49-8.95-1.29-12.85l15.57-19.05
				c3.19-3.91,8.95-4.48,12.85-1.3C356.75-480.92,357.33-475.17,354.14-471.26z M339.15-458.02c-0.12-0.11-0.36,0-0.36,0l-0.01-0.02
				c-4.42,2.96-9.19,2.69-10.99,2.45l-0.01,0.01c0,0-0.51,0.09-0.2,0.47c0.16,0.16,0.33,0.32,0.51,0.46c2.9,2.37,7.11,2,9.42-0.82
				l1.7-2.08C339.34-457.69,339.26-457.91,339.15-458.02z M351.27-481.9c-2.98-2.43-7.36-1.99-9.8,0.99l-6.31,7.72l10.95,8.63
				l3.33-4.08c0.05-0.07,0.1-0.13,0.15-0.2l2.67-3.27C354.69-475.08,354.25-479.47,351.27-481.9z"/>
			<g class="st5">
				<path class="st6" d="M454.32-377.51l-18.15-5.87c-0.75,2.32-0.62,4.93,0.58,7.28c2.4,4.69,8.14,6.55,12.83,4.15
					C451.93-373.15,453.56-375.19,454.32-377.51z"/>
				<path class="st6" d="M436.39-384.07l18.15,5.87c0.75-2.32,0.62-4.93-0.58-7.28c-2.4-4.69-8.14-6.55-12.84-4.15
					C438.78-388.43,437.14-386.39,436.39-384.07z"/>
			</g>
			<path class="st2" d="M434.84-423.57c0.06,0.09,0.26,0.96,0.26,0.96s-0.7-0.54-0.76-0.63l-7.65-11.74
				c-0.42,0.02-1.16,0.05-1.26-0.1l-2.86-4.41l-0.26,0.17c-0.09,0.06-0.21,0.03-0.27-0.06l-0.07-0.11
				c-0.06-0.09-0.03-0.21,0.06-0.27l0.26-0.17l-0.15-0.23l-2.96-0.63l0.05-0.03c-0.05,0.02-0.11,0.02-0.15-0.01l-0.01,0.01
				l-0.01-0.02c-0.01-0.01-0.02-0.02-0.03-0.04c-0.01-0.01-0.02-0.03-0.02-0.05l-1.37-2.12l1.2-0.76l-0.45-0.71l-1.2,0.77L415-447.1
				l1.23-0.78l-0.45-0.7l-1.23,0.79l-2.43-3.74l1.25-0.8l-0.45-0.7l-1.26,0.8l-2.17-3.34l1.28-0.82l-0.45-0.7l-1.28,0.82l-2.35-3.63
				l1.3-0.83l-0.45-0.7l-1.31,0.84l-0.95-1.46l-2.13,1.39c-0.16,0.1-0.37,0.06-0.48-0.1l-0.13-0.2c-0.11-0.16-0.06-0.38,0.1-0.48
				l2.52-1.64l-4.3-6.57l-0.79,0.51c-0.22,0.14-0.51,0.08-0.65-0.14c-0.14-0.22-0.08-0.51,0.14-0.65l6.69-4.34
				c0.22-0.14,0.51-0.08,0.65,0.14c0.14,0.22,0.08,0.51-0.14,0.65l-0.79,0.51l4.3,6.57l2.51-1.63c0.16-0.1,0.37-0.06,0.48,0.1
				l0.13,0.2c0.1,0.16,0.06,0.38-0.1,0.48l-2.13,1.39l0.98,1.51l11.23,17.29l1.51,2.33c0.01,0.01,0.02,0.02,0.03,0.04
				c0.01,0.01,0.01,0.03,0.02,0.05l0.01,0.02l-0.01,0c0,0.05-0.01,0.11-0.05,0.14l0.05-0.03l-0.63,2.95l0.15,0.24l0.26-0.17
				c0.09-0.06,0.21-0.03,0.27,0.06l0.07,0.11c0.06,0.09,0.03,0.21-0.06,0.27l-0.26,0.17l2.87,4.41c0.09,0.14-0.23,0.75-0.45,1.15
				L434.84-423.57"/>
			<path class="st3" d="M376.84-390.86l5.43-5.06c1.69-1.58,1.79-4.24,0.21-5.93l0,0l-4.77-5.1c-1.58-1.69-4.22-1.78-5.92-0.21
				l-5.83,5.43l-5.59-5.59c-1.64-1.64-4.29-1.64-5.93,0l-4.98,4.91c-1.64,1.64-1.64,4.29,0,5.93l5.26,5.24l-5.43,5.06
				c-1.7,1.58-1.79,4.23-0.21,5.93l0,0l4.77,5.11c0.75,0.84,1.81,1.35,2.94,1.4h0.14c1.04-0.01,2.04-0.42,2.8-1.13l5.83-5.43
				l2.88,2.89c0.26,0.26,0.62,0.41,0.99,0.41h9.43c0.37,0,0.73-0.14,0.99-0.41l2.21-2.21l0,0c1.64-1.64,1.64-4.29,0-5.93
				L376.84-390.86z"/>
			<path class="st4" d="M379.76-379.59c0.14-0.66-0.22-1.33-0.85-1.58l-6.99-2.8c-0.7-0.27-1.48,0.05-1.79,0.73l-1.9,4.2
				c-0.19,0.43-0.16,0.93,0.1,1.33c0.26,0.4,0.7,0.64,1.17,0.64h9.42c0.77,0,1.4-0.63,1.4-1.4
				C380.32-378.92,380.11-379.33,379.76-379.59L379.76-379.59z"/>
			<path class="st4" d="M359.48-400.85c1.93,0,3.5,1.57,3.5,3.5c0,1.93-1.56,3.5-3.5,3.5c-1.93,0-3.5-1.57-3.5-3.5
				C355.98-399.28,357.55-400.85,359.48-400.85z"/>
		</g>
		<g>
			<path class="st1" d="M194.09-452.16c-2.52,3.1-7.34,3.34-10.78,0.55l0,0c-3.43-2.8-4.18-7.57-1.66-10.66l16.49-20.27
				c2.52-3.1,7.34-3.34,10.78-0.55l0,0c3.43,2.79,4.18,7.57,1.66,10.66L194.09-452.16z"/>
			<path class="st2" d="M210.98-471.26l-15.57,19.06c-3.19,3.91-8.94,4.49-12.85,1.29c-3.91-3.19-4.49-8.95-1.29-12.85l15.57-19.05
				c3.19-3.91,8.95-4.48,12.85-1.3C213.59-480.92,214.17-475.17,210.98-471.26z M195.98-458.02c-0.12-0.11-0.36,0-0.36,0l-0.01-0.02
				c-4.42,2.96-9.19,2.69-10.99,2.45l-0.01,0.01c0,0-0.51,0.09-0.2,0.47c0.16,0.16,0.33,0.32,0.51,0.46c2.9,2.37,7.11,2,9.42-0.82
				l1.7-2.08C196.18-457.69,196.1-457.91,195.98-458.02z M208.11-481.9c-2.98-2.43-7.36-1.99-9.8,0.99l-6.31,7.72l10.95,8.63
				l3.33-4.08c0.05-0.07,0.1-0.13,0.15-0.2l2.67-3.27C211.53-475.08,211.09-479.47,208.11-481.9z"/>
			<g class="st5">
				<path class="st6" d="M311.16-377.51L293-383.38c-0.75,2.32-0.62,4.93,0.58,7.28c2.4,4.69,8.14,6.55,12.83,4.15
					C308.77-373.15,310.4-375.19,311.16-377.51z"/>
				<path class="st6" d="M293.23-384.07l18.15,5.87c0.75-2.32,0.62-4.93-0.58-7.28c-2.4-4.69-8.14-6.55-12.84-4.15
					C295.62-388.43,293.98-386.39,293.23-384.07z"/>
			</g>
			<path class="st2" d="M291.68-423.57c0.06,0.09,0.26,0.96,0.26,0.96s-0.7-0.54-0.76-0.63l-7.65-11.74
				c-0.42,0.02-1.16,0.05-1.26-0.1l-2.86-4.41l-0.26,0.17c-0.09,0.06-0.21,0.03-0.27-0.06l-0.07-0.11
				c-0.06-0.09-0.03-0.21,0.06-0.27l0.26-0.17l-0.15-0.23l-2.96-0.63l0.05-0.03c-0.05,0.02-0.11,0.02-0.15-0.01l-0.01,0.01
				l-0.01-0.02c-0.01-0.01-0.02-0.02-0.03-0.04c-0.01-0.01-0.02-0.03-0.02-0.05l-1.37-2.12l1.2-0.76l-0.45-0.71l-1.2,0.77
				l-2.17-3.34l1.23-0.78l-0.45-0.7l-1.23,0.79l-2.43-3.74l1.25-0.8l-0.45-0.7l-1.26,0.8l-2.17-3.34l1.28-0.82l-0.45-0.7l-1.28,0.82
				l-2.35-3.63l1.3-0.83l-0.45-0.7l-1.31,0.84l-0.95-1.46l-2.13,1.39c-0.16,0.1-0.37,0.06-0.48-0.1l-0.13-0.2
				c-0.11-0.16-0.06-0.38,0.1-0.48l2.52-1.64l-4.3-6.57l-0.79,0.51c-0.22,0.14-0.51,0.08-0.65-0.14c-0.14-0.22-0.08-0.51,0.14-0.65
				l6.69-4.34c0.22-0.14,0.51-0.08,0.65,0.14c0.14,0.22,0.08,0.51-0.14,0.65l-0.79,0.51l4.3,6.57l2.51-1.63
				c0.16-0.1,0.37-0.06,0.48,0.1l0.13,0.2c0.1,0.16,0.06,0.38-0.1,0.48l-2.13,1.39l0.98,1.51l11.23,17.29l1.51,2.33
				c0.01,0.01,0.02,0.02,0.03,0.04c0.01,0.01,0.01,0.03,0.02,0.05l0.01,0.02l-0.01,0c0,0.05-0.01,0.11-0.05,0.14l0.05-0.03
				l-0.63,2.95l0.15,0.24l0.26-0.17c0.09-0.06,0.21-0.03,0.27,0.06l0.07,0.11c0.06,0.09,0.03,0.21-0.06,0.27l-0.26,0.17l2.87,4.41
				c0.09,0.14-0.23,0.75-0.45,1.15L291.68-423.57"/>
			<path class="st3" d="M233.67-390.86l5.43-5.06c1.69-1.58,1.79-4.24,0.21-5.93l0,0l-4.77-5.1c-1.58-1.69-4.22-1.78-5.92-0.21
				l-5.83,5.43l-5.59-5.59c-1.64-1.64-4.29-1.64-5.93,0l-4.98,4.91c-1.64,1.64-1.64,4.29,0,5.93l5.26,5.24l-5.43,5.06
				c-1.7,1.58-1.79,4.23-0.21,5.93l0,0l4.77,5.11c0.75,0.84,1.81,1.35,2.94,1.4h0.14c1.04-0.01,2.04-0.42,2.8-1.13l5.83-5.43
				l2.88,2.89c0.26,0.26,0.62,0.41,0.99,0.41h9.43c0.37,0,0.73-0.14,0.99-0.41l2.21-2.21l0,0c1.64-1.64,1.64-4.29,0-5.93
				L233.67-390.86z"/>
			<path class="st4" d="M236.6-379.59c0.14-0.66-0.22-1.33-0.85-1.58l-6.99-2.8c-0.7-0.27-1.48,0.05-1.79,0.73l-1.9,4.2
				c-0.19,0.43-0.16,0.93,0.1,1.33c0.26,0.4,0.7,0.64,1.17,0.64h9.42c0.77,0,1.4-0.63,1.4-1.4
				C237.16-378.92,236.95-379.33,236.6-379.59L236.6-379.59z"/>
			<path class="st4" d="M216.32-400.85c1.93,0,3.5,1.57,3.5,3.5c0,1.93-1.56,3.5-3.5,3.5c-1.93,0-3.5-1.57-3.5-3.5
				C212.82-399.28,214.39-400.85,216.32-400.85z"/>
		</g>
		<g>
			<path class="st1" d="M50.93-452.16c-2.52,3.1-7.34,3.34-10.78,0.55l0,0c-3.43-2.8-4.18-7.57-1.66-10.66l16.49-20.27
				c2.52-3.1,7.34-3.34,10.78-0.55l0,0c3.43,2.79,4.18,7.57,1.66,10.66L50.93-452.16z"/>
			<path class="st2" d="M67.81-471.26l-15.57,19.06c-3.19,3.91-8.94,4.49-12.85,1.29c-3.91-3.19-4.49-8.95-1.29-12.85l15.57-19.05
				c3.19-3.91,8.95-4.48,12.85-1.3C70.43-480.92,71.01-475.17,67.81-471.26z M52.82-458.02c-0.12-0.11-0.36,0-0.36,0l-0.01-0.02
				c-4.42,2.96-9.19,2.69-10.99,2.45l-0.01,0.01c0,0-0.51,0.09-0.2,0.47c0.16,0.16,0.33,0.32,0.51,0.46c2.9,2.37,7.11,2,9.42-0.82
				l1.7-2.08C53.02-457.69,52.94-457.91,52.82-458.02z M64.95-481.9c-2.98-2.43-7.36-1.99-9.8,0.99l-6.31,7.72l10.95,8.63l3.33-4.08
				c0.05-0.07,0.1-0.13,0.15-0.2l2.67-3.27C68.37-475.08,67.93-479.47,64.95-481.9z"/>
			<g class="st5">
				<path class="st6" d="M167.99-377.51l-18.15-5.87c-0.75,2.32-0.62,4.93,0.58,7.28c2.4,4.69,8.14,6.55,12.83,4.15
					C165.61-373.15,167.24-375.19,167.99-377.51z"/>
				<path class="st6" d="M150.06-384.07l18.15,5.87c0.75-2.32,0.62-4.93-0.58-7.28c-2.4-4.69-8.14-6.55-12.84-4.15
					C152.45-388.43,150.82-386.39,150.06-384.07z"/>
			</g>
			<path class="st2" d="M148.52-423.57c0.06,0.09,0.26,0.96,0.26,0.96s-0.7-0.54-0.76-0.63l-7.65-11.74
				c-0.42,0.02-1.16,0.05-1.26-0.1l-2.86-4.41l-0.26,0.17c-0.09,0.06-0.21,0.03-0.27-0.06l-0.07-0.11
				c-0.06-0.09-0.03-0.21,0.06-0.27l0.26-0.17l-0.15-0.23l-2.96-0.63l0.05-0.03c-0.05,0.02-0.11,0.02-0.15-0.01l-0.01,0.01
				l-0.01-0.02c-0.01-0.01-0.02-0.02-0.03-0.04c-0.01-0.01-0.02-0.03-0.02-0.05l-1.37-2.12l1.2-0.76l-0.45-0.71l-1.2,0.77
				l-2.17-3.34l1.23-0.78l-0.45-0.7l-1.23,0.79l-2.43-3.74l1.25-0.8l-0.45-0.7l-1.26,0.8l-2.17-3.34l1.28-0.82l-0.45-0.7l-1.28,0.82
				l-2.35-3.63l1.3-0.83l-0.45-0.7l-1.31,0.84l-0.95-1.46l-2.13,1.39c-0.16,0.1-0.37,0.06-0.48-0.1l-0.13-0.2
				c-0.11-0.16-0.06-0.38,0.1-0.48l2.52-1.64l-4.3-6.57l-0.79,0.51c-0.22,0.14-0.51,0.08-0.65-0.14c-0.14-0.22-0.08-0.51,0.14-0.65
				l6.69-4.34c0.22-0.14,0.51-0.08,0.65,0.14c0.14,0.22,0.08,0.51-0.14,0.65l-0.79,0.51l4.3,6.57l2.51-1.63
				c0.16-0.1,0.37-0.06,0.48,0.1l0.13,0.2c0.1,0.16,0.06,0.38-0.1,0.48l-2.13,1.39l0.98,1.51l11.23,17.29l1.51,2.33
				c0.01,0.01,0.02,0.02,0.03,0.04c0.01,0.01,0.01,0.03,0.02,0.05l0.01,0.02l-0.01,0c0,0.05-0.01,0.11-0.05,0.14l0.05-0.03
				l-0.63,2.95l0.15,0.24l0.26-0.17c0.09-0.06,0.21-0.03,0.27,0.06l0.07,0.11c0.06,0.09,0.03,0.21-0.06,0.27l-0.26,0.17l2.87,4.41
				c0.09,0.14-0.23,0.75-0.45,1.15L148.52-423.57"/>
			<path class="st3" d="M90.51-390.86l5.43-5.06c1.69-1.58,1.79-4.24,0.21-5.93l0,0l-4.77-5.1c-1.58-1.69-4.22-1.78-5.92-0.21
				l-5.83,5.43l-5.59-5.59c-1.64-1.64-4.29-1.64-5.93,0l-4.98,4.91c-1.64,1.64-1.64,4.29,0,5.93l5.26,5.24l-5.43,5.06
				c-1.7,1.58-1.79,4.23-0.21,5.93l0,0l4.77,5.11c0.75,0.84,1.81,1.35,2.94,1.4h0.14c1.04-0.01,2.04-0.42,2.8-1.13l5.83-5.43
				l2.88,2.89c0.26,0.26,0.62,0.41,0.99,0.41h9.43c0.37,0,0.73-0.14,0.99-0.41l2.21-2.21l0,0c1.64-1.64,1.64-4.29,0-5.93
				L90.51-390.86z"/>
			<path class="st4" d="M93.43-379.59c0.14-0.66-0.22-1.33-0.85-1.58l-6.99-2.8c-0.7-0.27-1.48,0.05-1.79,0.73l-1.9,4.2
				c-0.19,0.43-0.16,0.93,0.1,1.33c0.26,0.4,0.7,0.64,1.17,0.64h9.42c0.77,0,1.4-0.63,1.4-1.4
				C93.99-378.92,93.79-379.33,93.43-379.59L93.43-379.59z"/>
			<path class="st4" d="M73.16-400.85c1.93,0,3.5,1.57,3.5,3.5c0,1.93-1.56,3.5-3.5,3.5c-1.93,0-3.5-1.57-3.5-3.5
				C69.66-399.28,71.23-400.85,73.16-400.85z"/>
		</g>
		<g>
			<g class="st5">
				<path class="st6" d="M6.9-384.07l18.15,5.87c0.75-2.32,0.62-4.93-0.58-7.28c-2.4-4.69-8.14-6.55-12.84-4.15
					C9.29-388.43,7.66-386.39,6.9-384.07z"/>
			</g>
		</g>
		<g>
			<path class="st2" d="M470.63-564.23c0.06,0.09,0.26,0.96,0.26,0.96s-0.7-0.54-0.76-0.63l-7.65-11.74
				c-0.42,0.02-1.16,0.05-1.26-0.1l-2.86-4.41l-0.26,0.17c-0.09,0.06-0.21,0.03-0.27-0.06l-0.07-0.11
				c-0.06-0.09-0.03-0.21,0.06-0.27l0.26-0.17l-0.15-0.23l-2.96-0.63l0.05-0.03c-0.05,0.02-0.11,0.02-0.15-0.01l-0.01,0.01
				l-0.01-0.02c-0.01-0.01-0.02-0.02-0.03-0.04c-0.01-0.01-0.02-0.03-0.02-0.05l-1.37-2.12l1.2-0.76l-0.45-0.71l-1.2,0.77
				l-2.17-3.34l1.23-0.78l-0.45-0.7l-1.23,0.79l-2.43-3.74l1.25-0.8l-0.45-0.7l-1.26,0.8l-2.17-3.34l1.28-0.82l-0.45-0.7l-1.28,0.82
				l-2.35-3.63l1.3-0.83l-0.45-0.7l-1.31,0.84l-0.95-1.46l-2.13,1.39c-0.16,0.1-0.37,0.06-0.48-0.1l-0.13-0.2
				c-0.11-0.16-0.06-0.38,0.1-0.48l2.52-1.64l-4.3-6.57l-0.79,0.51c-0.22,0.14-0.51,0.08-0.65-0.14c-0.14-0.22-0.08-0.51,0.14-0.65
				l6.69-4.34c0.22-0.14,0.51-0.08,0.65,0.14c0.14,0.22,0.08,0.51-0.14,0.65l-0.79,0.51l4.3,6.57l2.51-1.63
				c0.16-0.1,0.37-0.06,0.48,0.1l0.13,0.2c0.1,0.16,0.06,0.38-0.1,0.48l-2.13,1.39l0.98,1.51l11.23,17.29l1.51,2.33
				c0.01,0.01,0.02,0.02,0.03,0.04c0.01,0.01,0.01,0.03,0.02,0.05l0.01,0.02l-0.01,0c0,0.05-0.01,0.11-0.05,0.14l0.05-0.03
				l-0.63,2.95l0.15,0.24l0.26-0.17c0.09-0.06,0.21-0.03,0.27,0.06l0.07,0.11c0.06,0.09,0.03,0.21-0.06,0.27l-0.26,0.17l2.87,4.41
				c0.09,0.14-0.23,0.75-0.45,1.15L470.63-564.23"/>
			<path class="st3" d="M412.63-531.53l5.43-5.06c1.69-1.58,1.79-4.24,0.21-5.93l0,0l-4.77-5.1c-1.58-1.69-4.22-1.78-5.92-0.21
				l-5.83,5.43l-5.59-5.59c-1.64-1.64-4.29-1.64-5.93,0l-4.98,4.91c-1.64,1.64-1.64,4.29,0,5.93l5.26,5.24l-5.43,5.06
				c-1.7,1.58-1.79,4.23-0.21,5.93l0,0l4.77,5.11c0.75,0.84,1.81,1.35,2.94,1.4h0.14c1.04-0.01,2.04-0.42,2.8-1.13l5.83-5.43
				l2.88,2.89c0.26,0.26,0.62,0.41,0.99,0.41h9.43c0.37,0,0.73-0.14,0.99-0.41l2.21-2.21l0,0c1.64-1.64,1.64-4.29,0-5.93
				L412.63-531.53z"/>
			<path class="st4" d="M415.55-520.25c0.14-0.66-0.22-1.33-0.85-1.58l-6.99-2.8c-0.7-0.27-1.48,0.05-1.79,0.73l-1.9,4.2
				c-0.19,0.43-0.16,0.93,0.1,1.33c0.26,0.4,0.7,0.64,1.17,0.64h9.42c0.77,0,1.4-0.63,1.4-1.4
				C416.11-519.58,415.9-519.99,415.55-520.25L415.55-520.25z"/>
			<path class="st4" d="M395.27-541.51c1.93,0,3.5,1.57,3.5,3.5c0,1.93-1.56,3.5-3.5,3.5c-1.93,0-3.5-1.57-3.5-3.5
				C391.78-539.94,393.34-541.51,395.27-541.51z"/>
		</g>
		<g>
			<g class="st5">
				<path class="st6" d="M346.95-518.17l-18.15-5.87c-0.75,2.32-0.62,4.93,0.58,7.28c2.4,4.69,8.14,6.55,12.83,4.15
					C344.56-513.81,346.19-515.85,346.95-518.17z"/>
				<path class="st6" d="M329.02-524.73l18.15,5.87c0.75-2.32,0.62-4.93-0.58-7.28c-2.4-4.69-8.14-6.55-12.84-4.15
					C331.41-529.09,329.77-527.05,329.02-524.73z"/>
			</g>
			<path class="st2" d="M327.47-564.23c0.06,0.09,0.26,0.96,0.26,0.96s-0.7-0.54-0.76-0.63l-7.65-11.74
				c-0.42,0.02-1.16,0.05-1.26-0.1l-2.86-4.41l-0.26,0.17c-0.09,0.06-0.21,0.03-0.27-0.06l-0.07-0.11
				c-0.06-0.09-0.03-0.21,0.06-0.27l0.26-0.17l-0.15-0.23l-2.96-0.63l0.05-0.03c-0.05,0.02-0.11,0.02-0.15-0.01l-0.01,0.01
				l-0.01-0.02c-0.01-0.01-0.02-0.02-0.03-0.04c-0.01-0.01-0.02-0.03-0.02-0.05l-1.37-2.12l1.2-0.76l-0.45-0.71l-1.2,0.77
				l-2.17-3.34l1.23-0.78l-0.45-0.7l-1.23,0.79l-2.43-3.74l1.25-0.8l-0.45-0.7l-1.26,0.8l-2.17-3.34l1.28-0.82l-0.45-0.7l-1.28,0.82
				l-2.35-3.63l1.3-0.83l-0.45-0.7l-1.31,0.84l-0.95-1.46l-2.13,1.39c-0.16,0.1-0.37,0.06-0.48-0.1l-0.13-0.2
				c-0.11-0.16-0.06-0.38,0.1-0.48l2.52-1.64l-4.3-6.57l-0.79,0.51c-0.22,0.14-0.51,0.08-0.65-0.14c-0.14-0.22-0.08-0.51,0.14-0.65
				l6.69-4.34c0.22-0.14,0.51-0.08,0.65,0.14c0.14,0.22,0.08,0.51-0.14,0.65l-0.79,0.51l4.3,6.57l2.51-1.63
				c0.16-0.1,0.37-0.06,0.48,0.1l0.13,0.2c0.1,0.16,0.06,0.38-0.1,0.48l-2.13,1.39l0.98,1.51l11.23,17.29l1.51,2.33
				c0.01,0.01,0.02,0.02,0.03,0.04c0.01,0.01,0.01,0.03,0.02,0.05l0.01,0.02l-0.01,0c0,0.05-0.01,0.11-0.05,0.14l0.05-0.03
				l-0.63,2.95l0.15,0.24l0.26-0.17c0.09-0.06,0.21-0.03,0.27,0.06l0.07,0.11c0.06,0.09,0.03,0.21-0.06,0.27l-0.26,0.17l2.87,4.41
				c0.09,0.14-0.23,0.75-0.45,1.15L327.47-564.23"/>
			<path class="st3" d="M269.46-531.53l5.43-5.06c1.69-1.58,1.79-4.24,0.21-5.93l0,0l-4.77-5.1c-1.58-1.69-4.22-1.78-5.92-0.21
				l-5.83,5.43l-5.59-5.59c-1.64-1.64-4.29-1.64-5.93,0l-4.98,4.91c-1.64,1.64-1.64,4.29,0,5.93l5.26,5.24l-5.43,5.06
				c-1.7,1.58-1.79,4.23-0.21,5.93l0,0l4.77,5.11c0.75,0.84,1.81,1.35,2.94,1.4h0.14c1.04-0.01,2.04-0.42,2.8-1.13l5.83-5.43
				l2.88,2.89c0.26,0.26,0.62,0.41,0.99,0.41h9.43c0.37,0,0.73-0.14,0.99-0.41l2.21-2.21l0,0c1.64-1.64,1.64-4.29,0-5.93
				L269.46-531.53z"/>
			<path class="st4" d="M272.39-520.25c0.14-0.66-0.22-1.33-0.85-1.58l-6.99-2.8c-0.7-0.27-1.48,0.05-1.79,0.73l-1.9,4.2
				c-0.19,0.43-0.16,0.93,0.1,1.33c0.26,0.4,0.7,0.64,1.17,0.64h9.42c0.77,0,1.4-0.63,1.4-1.4
				C272.95-519.58,272.74-519.99,272.39-520.25L272.39-520.25z"/>
			<path class="st4" d="M252.11-541.51c1.93,0,3.5,1.57,3.5,3.5c0,1.93-1.56,3.5-3.5,3.5c-1.93,0-3.5-1.57-3.5-3.5
				C248.61-539.94,250.18-541.51,252.11-541.51z"/>
		</g>
		<g>
			<g class="st5">
				<path class="st6" d="M203.78-518.17l-18.15-5.87c-0.75,2.32-0.62,4.93,0.58,7.28c2.4,4.69,8.14,6.55,12.83,4.15
					C201.4-513.81,203.03-515.85,203.78-518.17z"/>
				<path class="st6" d="M185.86-524.73l18.15,5.87c0.75-2.32,0.62-4.93-0.58-7.28c-2.4-4.69-8.14-6.55-12.84-4.15
					C188.24-529.09,186.61-527.05,185.86-524.73z"/>
			</g>
			<path class="st2" d="M184.31-564.23c0.06,0.09,0.26,0.96,0.26,0.96s-0.7-0.54-0.76-0.63l-7.65-11.74
				c-0.42,0.02-1.16,0.05-1.26-0.1l-2.86-4.41l-0.26,0.17c-0.09,0.06-0.21,0.03-0.27-0.06l-0.07-0.11
				c-0.06-0.09-0.03-0.21,0.06-0.27l0.26-0.17l-0.15-0.23l-2.96-0.63l0.05-0.03c-0.05,0.02-0.11,0.02-0.15-0.01l-0.01,0.01
				l-0.01-0.02c-0.01-0.01-0.02-0.02-0.03-0.04c-0.01-0.01-0.02-0.03-0.02-0.05l-1.37-2.12l1.2-0.76l-0.45-0.71l-1.2,0.77
				l-2.17-3.34l1.23-0.78l-0.45-0.7l-1.23,0.79l-2.43-3.74l1.25-0.8l-0.45-0.7l-1.26,0.8l-2.17-3.34l1.28-0.82l-0.45-0.7l-1.28,0.82
				l-2.35-3.63l1.3-0.83l-0.45-0.7l-1.31,0.84l-0.95-1.46l-2.13,1.39c-0.16,0.1-0.37,0.06-0.48-0.1l-0.13-0.2
				c-0.11-0.16-0.06-0.38,0.1-0.48l2.52-1.64l-4.3-6.57l-0.79,0.51c-0.22,0.14-0.51,0.08-0.65-0.14c-0.14-0.22-0.08-0.51,0.14-0.65
				l6.69-4.34c0.22-0.14,0.51-0.08,0.65,0.14c0.14,0.22,0.08,0.51-0.14,0.65l-0.79,0.51l4.3,6.57l2.51-1.63
				c0.16-0.1,0.37-0.06,0.48,0.1l0.13,0.2c0.1,0.16,0.06,0.38-0.1,0.48l-2.13,1.39l0.98,1.51l11.23,17.29l1.51,2.33
				c0.01,0.01,0.02,0.02,0.03,0.04c0.01,0.01,0.01,0.03,0.02,0.05l0.01,0.02l-0.01,0c0,0.05-0.01,0.11-0.05,0.14l0.05-0.03
				l-0.63,2.95l0.15,0.24l0.26-0.17c0.09-0.06,0.21-0.03,0.27,0.06l0.07,0.11c0.06,0.09,0.03,0.21-0.06,0.27l-0.26,0.17l2.87,4.41
				c0.09,0.14-0.23,0.75-0.45,1.15L184.31-564.23"/>
			<path class="st3" d="M126.3-531.53l5.43-5.06c1.69-1.58,1.79-4.24,0.21-5.93l0,0l-4.77-5.1c-1.58-1.69-4.22-1.78-5.92-0.21
				l-5.83,5.43l-5.59-5.59c-1.64-1.64-4.29-1.64-5.93,0l-4.98,4.91c-1.64,1.64-1.64,4.29,0,5.93l5.26,5.24l-5.43,5.06
				c-1.7,1.58-1.79,4.23-0.21,5.93l0,0l4.77,5.11c0.75,0.84,1.81,1.35,2.94,1.4h0.14c1.04-0.01,2.04-0.42,2.8-1.13l5.83-5.43
				l2.88,2.89c0.26,0.26,0.62,0.41,0.99,0.41h9.43c0.37,0,0.73-0.14,0.99-0.41l2.21-2.21l0,0c1.64-1.64,1.64-4.29,0-5.93
				L126.3-531.53z"/>
			<path class="st4" d="M129.23-520.25c0.14-0.66-0.22-1.33-0.85-1.58l-6.99-2.8c-0.7-0.27-1.48,0.05-1.79,0.73l-1.9,4.2
				c-0.19,0.43-0.16,0.93,0.1,1.33c0.26,0.4,0.7,0.64,1.17,0.64h9.42c0.77,0,1.4-0.63,1.4-1.4
				C129.78-519.58,129.58-519.99,129.23-520.25L129.23-520.25z"/>
			<path class="st4" d="M108.95-541.51c1.93,0,3.5,1.57,3.5,3.5c0,1.93-1.56,3.5-3.5,3.5c-1.93,0-3.5-1.57-3.5-3.5
				C105.45-539.94,107.02-541.51,108.95-541.51z"/>
		</g>
		<g>
			<g class="st5">
				<path class="st6" d="M60.62-518.17l-18.15-5.87c-0.75,2.32-0.62,4.93,0.58,7.28c2.4,4.69,8.14,6.55,12.83,4.15
					C58.23-513.81,59.87-515.85,60.62-518.17z"/>
				<path class="st6" d="M42.69-524.73l18.15,5.87c0.75-2.32,0.62-4.93-0.58-7.28c-2.4-4.69-8.14-6.55-12.84-4.15
					C45.08-529.09,43.45-527.05,42.69-524.73z"/>
			</g>
			<path class="st2" d="M41.15-564.23c0.06,0.09,0.26,0.96,0.26,0.96s-0.7-0.54-0.76-0.63L33-575.63c-0.42,0.02-1.16,0.05-1.26-0.1
				l-2.86-4.41l-0.26,0.17c-0.09,0.06-0.21,0.03-0.27-0.06l-0.07-0.11c-0.06-0.09-0.03-0.21,0.06-0.27l0.26-0.17l-0.15-0.23
				l-2.96-0.63l0.05-0.03c-0.05,0.02-0.11,0.02-0.15-0.01l-0.01,0.01l-0.01-0.02c-0.01-0.01-0.02-0.02-0.03-0.04
				c-0.01-0.01-0.02-0.03-0.02-0.05l-1.37-2.12l1.2-0.76l-0.45-0.71l-1.2,0.77l-2.17-3.34l1.23-0.78l-0.45-0.7l-1.23,0.79
				l-2.43-3.74l1.25-0.8l-0.45-0.7l-1.26,0.8l-2.17-3.34l1.28-0.82l-0.45-0.7l-1.28,0.82l-2.35-3.63l1.3-0.83l-0.45-0.7l-1.31,0.84
				l-0.95-1.46l-2.13,1.39c-0.16,0.1-0.37,0.06-0.48-0.1l-0.13-0.2c-0.11-0.16-0.06-0.38,0.1-0.48l2.52-1.64l-4.3-6.57l-0.79,0.51
				c-0.22,0.14-0.51,0.08-0.65-0.14c-0.14-0.22-0.08-0.51,0.14-0.65l6.69-4.34c0.22-0.14,0.51-0.08,0.65,0.14
				c0.14,0.22,0.08,0.51-0.14,0.65l-0.79,0.51l4.3,6.57l2.51-1.63c0.16-0.1,0.37-0.06,0.48,0.1l0.13,0.2
				c0.1,0.16,0.06,0.38-0.1,0.48l-2.13,1.39l0.98,1.51l11.23,17.29l1.51,2.33c0.01,0.01,0.02,0.02,0.03,0.04
				c0.01,0.01,0.01,0.03,0.02,0.05l0.01,0.02l-0.01,0c0,0.05-0.01,0.11-0.05,0.14l0.05-0.03l-0.63,2.95l0.15,0.24l0.26-0.17
				c0.09-0.06,0.21-0.03,0.27,0.06l0.07,0.11c0.06,0.09,0.03,0.21-0.06,0.27l-0.26,0.17l2.87,4.41c0.09,0.14-0.23,0.75-0.45,1.15
				L41.15-564.23"/>
		</g>
	</g>
</pattern>
<g id="Calque_1">
	<rect x="-12" y="-13" class="st7" width="1947" height="1104"/>
</g>
<g id="Calque_2">
	<title></title>
	<rect x="-20" y="-21" class="st8" width="1963" height="1124"/>
</g>
</svg>
